[
    {
        "chain_id": 1,
        "name": "Ethereum Mainnet",
        "symbol": "ETH"
    },
    {
        "chain_id": 2,
        "name": "Expanse",
        "symbol": "EXP"
    },
    {
        "chain_id": 5,
        "name": "Ethereum Goerli Testnet",
        "symbol": "ETH"
    },
    {
        "chain_id": 8,
        "name": "UBIQ",
        "symbol": "UBQ"
    },
    {
        "chain_id": 10,
        "name": "Optimism",
        "symbol": "ETH"
    },
    {
        "chain_id": 20,
        "name": "Elastos Smart Chain",
        "symbol": "ELA"
    },
    {
        "chain_id": 28,
        "name": "Ethereum Social",
        "symbol": "ETSC"
    },
    {
        "chain_id": 30,
        "name": "Rootstock",
        "symbol": "RBTC"
    },
    {
        "chain_id": 40,
        "name": "Telos",
        "symbol": "TLOS"
    },
    {
        "chain_id": 42,
        "name": "Ethereum Kovan Testnet",
        "symbol": "ETH"
    },
    {
        "chain_id": 56,
        "name": "BNB Chain",
        "symbol": "BNB"
    },
    {
        "chain_id": 61,
        "name": "Ethereum Classic Mainnet",
        "symbol": "ETC"
    },
    {
        "chain_id": 64,
        "name": "Ellaism",
        "symbol": "ELLA"
    },
    {
        "chain_id": 100,
        "name": "Gnosis",
        "symbol": "xDAI"
    },
    {
        "chain_id": 137,
        "name": "Polygon Mainnet",
        "symbol": "MATIC"
    }
]